…
``` r
month_df = 
  tibble(
    month = 1:12,
    month_name = month.name
  )

prcip_1718 = 
  bind_rows(prcip_2017, prcip_2018)

left_join(prcip_1718, month_df, by = "month")
```

    ## # A tibble: 24 x 4
    ##    month total  year month_name
    ##    <dbl> <dbl> <dbl> <chr>     
    ##  1     1  2.34  2017 January   
    ##  2     2  1.46  2017 February  
    ##  3     3  3.57  2017 March     
    ##  4     4  3.99  2017 April     
    ##  5     5  5.64  2017 May       
    ##  6     6  1.4   2017 June      
    ##  7     7  7.09  2017 July      
    ##  8     8  4.44  2017 August    
    ##  9     9  1.95  2017 September 
    ## 10    10  0     2017 October   
    ## # … with 14 more rows
…
    ## See spec(...) for full column specifications.

``` r
  mutate(nyc_transit,
   entry = recode(entry, 'YES' = TRUE, 'NO' = FALSE)
  )
```

    ## # A tibble: 1,868 x 19
    ##    line  station_name station_latitude station_longitu… route1 route2 route3
    ##    <chr> <chr>                   <dbl>            <dbl> <chr>  <chr>  <chr> 
    ##  1 4 Av… 25th St                  40.7            -74.0 R      <NA>   <NA>  
    ##  2 4 Av… 25th St                  40.7            -74.0 R      <NA>   <NA>  
    ##  3 4 Av… 36th St                  40.7            -74.0 N      R      <NA>  
    ##  4 4 Av… 36th St                  40.7            -74.0 N      R      <NA>  
    ##  5 4 Av… 36th St                  40.7            -74.0 N      R      <NA>  
    ##  6 4 Av… 45th St                  40.6            -74.0 R      <NA>   <NA>  
    ##  7 4 Av… 45th St                  40.6            -74.0 R      <NA>   <NA>  
    ##  8 4 Av… 45th St                  40.6            -74.0 R      <NA>   <NA>  
    ##  9 4 Av… 45th St                  40.6            -74.0 R      <NA>   <NA>  
    ## 10 4 Av… 53rd St                  40.6            -74.0 R      <NA>   <NA>  
    ## # … with 1,858 more rows, and 12 more variables: route4 <chr>, route5 <chr>,
    ## #   route6 <chr>, route7 <chr>, route8 <dbl>, route9 <dbl>, route10 <dbl>,
    ## #   route11 <dbl>, entry <lgl>, vending <chr>, entrance_type <chr>, ada <lgl>
…
